{
 "actions": [],
 "autoname": "field:name1",
 "creation": "2021-07-29 12:56:19.083933",
 "doctype": "DocType",
 "editable_grid": 1,
 "engine": "InnoDB",
 "field_order": [
  "water_source_id",
  "name1",
  "type",
  "location"
 ],
 "fields": [
  {
   "fieldname": "water_source_id",
   "fieldtype": "Data",
   "label": "Water Source ID",
   "reqd": 1
  },
  {
   "fieldname": "name1",
   "fieldtype": "Data",
   "in_list_view": 1,
   "label": "Name",
   "reqd": 1,
   "unique": 1
  },
  {
   "fieldname": "type",
   "fieldtype": "Select",
   "label": "Type",
   "options": "\nLake\nSpring\nStream\nDam\nBorehole\nRiver",
   "reqd": 1
  },
  {
   "fieldname": "location",
   "fieldtype": "Data",
   "in_list_view": 1,
   "label": "Location",
   "reqd": 1
  }
 ],
 "index_web_pages_for_search": 1,
 "links": [],
 "modified": "2021-07-30 10:46:29.100202",
 "modified_by": "Administrator",
 "module": "Water Permit",
 "name": "Water Source",
 "owner": "Administrator",
 "permissions": [
  {
   "create": 1,
   "delete": 1,
   "email": 1,
   "export": 1,
   "print": 1,
   "read": 1,
   "report": 1,
   "role": "System Manager",
   "share": 1,
   "write": 1
  }
 ],
 "sort_field": "modified",
 "sort_order": "DESC",
 "track_changes": 1
}